AccountName,AccountNum,Address,City,CountryRegionId,County,CustGroup,Description,LocationId,Locator,Street,TED3PLConsolidateShipment,ZipCode
House Of Fraser,,"Store Support Centre, 27 Baker Street London - LONDON W1U 8AH GBR",London,GBR,LONDON,W-MULTIPLE,House Of Fraser,000007744,,"Store Support Centre, 27 Baker Street",0,W1U 8AH
House Of Fraser,CGB000001,"Park Farm Industrial Estate, Shaw Close Wellingborough - NTH NN8 6BN GBR",Wellingborough,GBR,NTH,W-MULTIPLE,National Distribution Centre,000007749,,"Park Farm Industrial Estate, Shaw Close",0,NN8 6BN
Bentalls PLC Kingston,CGB000005,"Dock D Bentall Centre Dolphin Street Kingston Upon Thames Surrey KT1 1TX GBR",,GBR,,W-MULTIPLE,Bentalls Plc Kingston,000006729,,"Dock D Bentall Centre Dolphin Street Kingston Upon Thames Surrey KT1 1TX",0,
John Lewis Statements,CGB000006,"Partnership Services, Po Box 4199 Doncastle Road, Bracknell, Berks, RG12 8YB GBR",,GBR,,W-MULTIPLE,John Lewis Statements,000007421,jl_invoice_queries@partnershipservices.co.uk,"Partnership Services, Po Box 4199 Doncastle Road, Bracknell, Berks, RG12 8YB",0,
John Lewis Statements,CGB000006,,,,,W-MULTIPLE,,000010302,,,0,
Moss Bros Group PLC Formal,CGB000007,"Unit B Circular 13, Gascoigne Road, Barking, Greater London, IG11 7HP GBR",,GBR,,W-MULTIPLE,Moss Bros Distribution Centre,000008033,,"Unit B Circular 13, Gascoigne Road, Barking, Greater London, IG11 7HP",0,
Bentalls PLC Supplier Accounts,CGB000011,"Anstee House, Wood Street, Kingston Upon Thames, Surrey, KT1 1TS GBR",,GBR,,W-MULTIPLE,Bentalls PLC Supplier Accounts,000006727,,"Anstee House, Wood Street, Kingston Upon Thames, Surrey, KT1 1TS",0,
Bentalls PLC Supplier Accounts,CGB000011,,,,,W-MULTIPLE,,000008827,,,0,
Tjx Uk,CGB000012,"50 Clarendon Road, Watford, Hertfordshire, WD17 1TX GBR",,GBR,,W-MULTIPLE,Tjx Uk,000008607,,"50 Clarendon Road, Watford, Hertfordshire, WD17 1TX",0,
J E Beale PLC Accounts Dept,CGB000013,"The Granville Chambers, 21 Richmond Hill, Bournemouth, Dorset, BH2 6BJ GBR",,GBR,,W-MULTIPLE,J E Beale PLC Accounts Dept,000006725,rferguson@beales.co.uk,"The Granville Chambers, 21 Richmond Hill, Bournemouth, Dorset, BH2 6BJ",0,
J E Beale PLC Accounts Dept,CGB000013,,,,,W-MULTIPLE,,000008825,,,0,
Slater Mens Wear,CGB000015,"Plot F, Bedlay View, Tannochside Ind Estate, Uddingston, Glasgow, G71 5PE GBR",,GBR,,W-MULTIPLE,Slater Mens Wear (Warehouse),000007906,,"Plot F, Bedlay View, Tannochside Ind Estate, Uddingston, Glasgow, G71 5PE",0,
John Lewis,CGB000016,"17 Suez Road - Ethel Sutton, Brimsdown, Enfield, Middlesex, EN3 7SN,East London Enfield - EN37SN GBR",Enfield,GBR,,W-MULTIPLE,John Lewis - Clipper Logistics,000007411,esutton@clippergroup.co.uk,"17 Suez Road - Ethel Sutton, Brimsdown, Enfield, Middlesex, EN3 7SN,East London",0,EN37SN
John Lewis,CGB000016,"Magna Park, Fen Street, Fen Farm, Milton Keynes, Buckinghamshire, MK17 8EW GBR",,GBR,,W-MULTIPLE,John Lewis Magna Park,000007423,invoices@partnershipservices.co.uk,"Magna Park, Fen Street, Fen Farm, Milton Keynes, Buckinghamshire, MK17 8EW",0,
John Lewis,CGB000016,"2 Mercury Drive, Brackmills Industrial Estate, Northampton, Northamptonshire, NN4 7PN GBR",,GBR,,W-MULTIPLE,John Lewis Northampton,000007427,invoices@partnershipservices.co.uk,"2 Mercury Drive, Brackmills Industrial Estate, Northampton, Northamptonshire, NN4 7PN",0,
John Lewis,CGB000016,"Park Royal Distribution Centre, 41-44 Kendal Avenue, London, Greater London, W3 0TP GBR",,GBR,,W-MULTIPLE,John Lewis Park Royal,000007429,,"Park Royal Distribution Centre, 41-44 Kendal Avenue, London, Greater London, W3 0TP",0,
Bentalls PLC Bracknell,CGB000018,"Service Yard E Bracknell Berkshire RG1 1DW GBR",,GBR,,W-MULTIPLE,Bentalls Bracknell Receiving Bay,000006731,,"Service Yard E Bracknell Berkshire RG1 1DW",0,
Berwin Retail LTD,CGB000021,"Roseville Road, Leeds,  West Yorkshire,  LS8 5EE GBR",,GBR,,W-MULTIPLE,Berwin Retail LTD,000006733,l.wrightson@berwinberwin.co.uk,"Roseville Road, Leeds,  West Yorkshire,  LS8 5EE",0,
Elys [Wimbledon] PLC-Wholesale,CGB000036,"16 St Georges Road, Wimbledon, Greater London, SW19 4DP GBR",,GBR,,W-MULTIPLE,Elys [Wimbledon] PLC-Wholesale,000007306,stevenicoll@morleystores.co.uk,"16 St Georges Road, Wimbledon, Greater London, SW19 4DP",0,
Signet Trading LTD T-A Ernest Jones,CGB000124,,,,,W-MULTIPLE,Signet Trading LTD T-A Ernest Jones,000007322,,,0,
Signet Trading LTD T-A Ernest Jones,CGB000124,"Hunters Road, Birmingham, West Midlands, B19 1DS GBR",,GBR,,W-MULTIPLE,Signet Trading LTD T-A Ernest Jones,000007324,,"Hunters Road, Birmingham, West Midlands, B19 1DS",0,
J E Beale PLC 08 Yeovil - Denners,CGB000131,"Units 5-9, Gazzelle Road, Bartlett Park,Lyns Trading Est, Yeovil, Somerset, BA20 2PJ GBR",,GBR,,W-MULTIPLE,J E Beale PLC 08 Yeovil - Denners,000006705,hpeyman@beales.co.uk,"Units 5-9, Gazzelle Road, Bartlett Park,Lyns Trading Est, Yeovil, Somerset, BA20 2PJ",0,
J E Beale PLC 03 Poole,CGB000132,"64/68 Dolphin Centre, Poole, Dorset, BH15 1SQ GBR",,GBR,,W-MULTIPLE,J E Beale PLC 03 Poole,000006981,hpeyman@beales.com,"64/68 Dolphin Centre, Poole, Dorset, BH15 1SQ",0,
J E Beale PLC 09 Kendal,CGB000133,"37-58 Finkle Street, Kendal, Cumbria, LA9 4AL GBR",,GBR,,W-MULTIPLE,J E Beale PLC 09 Kendal,000006741,accounts@beales.co.uk,"37-58 Finkle Street, Kendal, Cumbria, LA9 4AL",0,
J E Beale PLC 04 Southport,CGB000134,"5 West Street, Southport, Lancashire, PR8 1NY GBR",,GBR,,W-MULTIPLE,J E Beale PLC 04 Southport,000006693,accounts@beales.co.uk,"5 West Street, Southport, Lancashire, PR8 1NY",0,
J E Beale 01 Bournemouth,CGB000135,"36 Old Christchurch Road, Bournemouth, Dorset, BH1 1LJ GBR",,GBR,,W-MULTIPLE,J E Beale 01 Bournemouth,000006697,hpeyman@beales.com,"36 Old Christchurch Road, Bournemouth, Dorset, BH1 1LJ",0,
Fenwicks [Brent X],CGB000136,"Wholesale Stock, Brent Cross Shopping Centre, London, Greater London, NW4 3FN GBR",,GBR,,W-MULTIPLE,Fenwicks [Brent X],000007366,brx.supplieraccounts12@fenwick.co.uk,"Wholesale Stock, Brent Cross Shopping Centre, London, Greater London, NW4 3FN",0,
Fenwicks [Brent X],CGB000136,"Bay X - Wholesale Deliveries, Brent Cross Shopping Centre, London, Greater London, NW4 3FN GBR",,GBR,,W-MULTIPLE,Fenwicks LTD,000007374,,"Bay X - Wholesale Deliveries, Brent Cross Shopping Centre, London, Greater London, NW4 3FN",0,
Fenwick LTD [Canterbury] Acc,CGB000137,"Wholesale Stock, St Georges Lane, Canterbury, Kent, CT1 2TB GBR",,GBR,,W-MULTIPLE,Fenwick LTD [Canterbury] Acc,000007370,canterbury.suppliers@fenwick.co.uk,"Wholesale Stock, St Georges Lane, Canterbury, Kent, CT1 2TB",0,
Fenwick LTD [Canterbury] Acc,CGB000137,"Wholesale Stock, Simmonds Rd, Wincheap Ind Est, Canterbury, Kent, CT1 3RA GBR",,GBR,,W-MULTIPLE,Fenwick LTD Service Centre,000007379,,"Wholesale Stock, Simmonds Rd, Wincheap Ind Est, Canterbury, Kent, CT1 3RA",0,
Fenwick LTD [Newcastle],CGB000138,"Mylord Crescent, Camperdown Industrial Estate, Killingworth, Tyne And Wear, NE12 5SP GBR",,GBR,,W-MULTIPLE,Fenwick [Ncl] Wholesale Deliveries,000007378,,"Mylord Crescent, Camperdown Industrial Estate, Killingworth, Tyne And Wear, NE12 5SP",0,
Fenwick LTD [York],CGB000139,"Coppergate Centre, St Mary'S Square, York, North Yorkshire, Y01 9WY GBR",,GBR,,W-MULTIPLE,Fenwicks LTD [York],000006933,yorkreception@fenwick.co.uk,"Coppergate Centre, St Mary'S Square, York, North Yorkshire, Y01 9WY",0,
Fenwick LTD [Windsor],CGB000140,"10-11 King Edward Court, Windsor, Berkshire, SL4 1TF GBR",,GBR,,W-MULTIPLE,Fenwick LTD [Windsor],000006929,windsoraccounts@fenwick.co.uk,"10-11 King Edward Court, Windsor, Berkshire, SL4 1TF",0,
Tjx Uk Invoices,CGB000155,"Merchandise Payable, Po Box 2283 50 Clarendon Rd, Watford, Hertfordshire, WD18 1JL GBR",,GBR,,W-MULTIPLE,Tjx Uk Invoices,000008601,,"Merchandise Payable, Po Box 2283 50 Clarendon Rd, Watford, Hertfordshire, WD18 1JL",0,
Tjx Uk Invoices,CGB000155,,,,,W-MULTIPLE,,000009053,,,0,
Fenwick LTD [Leic],CGB000163,"1 Market Street Leicester Leicestershire LE1 6DE GBR",,GBR,,W-MULTIPLE,Fenwick Ltd [Leic],000006896,jeremyharrington@fenwick.co.uk,"1 Market Street Leicester Leicestershire LE1 6DE",0,
Fenwick LTD [Leic],CGB000163,,,,,W-MULTIPLE,Fenwick LTD [Leic],000007401,jeremyharrington@fenwick.co.uk,,0,
Fenwick LTD [T-Wells],CGB000164,"Royal Victoria Place, Tunbridge Wells, Kent, TN1 2SR GBR",,GBR,,W-MULTIPLE,Fenwick LTD [T-Wells],000006922,richardmoon@fenwick.co.uk,"Royal Victoria Place, Tunbridge Wells, Kent, TN1 2SR",0,
Roomes Dept Store - Inv And Deliv,CGB000180,"1-12 Station Road, Ilford, Essex, IG1 4DP GBR",,GBR,,W-MULTIPLE,Roomes Dept Store - Inv And Deliv,000007298,,"1-12 Station Road, Ilford, Essex, IG1 4DP",0,
Stockmann Helsinki,CGB000181,"Vanha Talvitie 10 F, Helsinki, 00580 FIN",,FIN,,W-MULTIPLE,Stockmann Helsinki,000008517,jari@acc3ss.com; samu@acc3ss.com,"Vanha Talvitie 10 F, Helsinki, 00580",0,
Stockmann Russia,CGB000182,"Vanha Talvitie 10 F, Helsinki, 00580 FIN",,FIN,,W-MULTIPLE,Stockmann Russia,000008525,jari@acc3ss.com; samu@acc3ss.com,"Vanha Talvitie 10 F, Helsinki, 00580",0,
Demsa - Wholesale,,"Harvey Nichols, Kisikli Cad No 43 Altunizade, Istanbul TUR",,TUR,,W-MULTIPLE,Demsa Ic Ve Dis Ticaret As,000007218,demircanerdogan@demsagroup.com, burakturan@demsagroup.com,"Harvey Nichols, Kisikli Cad No 43 Altunizade, Istanbul",0,
Stockmann Baltics,CGB000195,"Vanha Talvitie 10 F, Helsinki, 00580 FIN",,FIN,,W-MULTIPLE,Stockmann Baltics,000008521,jari@acc3ss.com; samu@acc3ss.com,"Vanha Talvitie 10 F, Helsinki, 00580",0,
Aditya Birla Fashion & Retail Ltd,CGB000240,"FedEx Services [India] Pvt Ltd NDR Warehousing Nashik Highway Bhiwandi Bypass Road Bhiwandi 421302 IND",,IND,,W-MULTIPLE,Aditya Birla Fashion & Retail Ltd,000008041,kumar.k@madura.aditabirla.com,"FedEx Services [India] Pvt Ltd NDR Warehousing Nashik Highway Bhiwandi Bypass Road Bhiwandi 421302",0,
Debenhams PLC,CGB000256,"Unit 3 Flaxley Road,  Kingston Park,  Peterborough,  Cambridgeshire PE2 9EN GBR",,GBR,,W-MULTIPLE,Debenhams PLC Peterborough DC,000007212,centralbookings@debenhams.com,"Unit 3 Flaxley Road,  Kingston Park,  Peterborough,  Cambridgeshire",0,PE2 9EN
Debenhams PLC,CGB000256,"Unit 4, Hurricane Way South, Sherburn, Yorkshire LS25 6PT GBR",,GBR,,W-MULTIPLE,Debenhams PLC - Sherburn DC 777,000018878,,"Unit 4, Hurricane Way South, Sherburn, Yorkshire",0,LS25 6PT
Magazine Zum Globus AG,CGB000553,"Industriestrasse 19 Otelfingen CH 8112 Switzerland  Switzerland",,CHE,,W-MULTIPLE,Magazine Zum Globus AG,000007676,susann.ratai@globus.ch,"Industriestrasse 19 Otelfingen CH 8112 Switzerland ",0,
Attica Department Stores Sa,CGB000715,"Store 01 Panepistimiou, 9 Panepistimiou Str, Athens, GR 10564 GRC",,GRC,,W-MULTIPLE,Attica Department Stores Sa,000006671,paleochoriti@atticadps.gr; fragou@atticadps.gr,"Store 01 Panepistimiou, 9 Panepistimiou Str, Athens, GR 10564",0,
Pearsons [Enfield] LTD,CGB000733,"11-14 The Town, Enfield, Middlesex, EN2 6LJ GBR",,GBR,,W-MULTIPLE,Pearsons [Enfield] LTD,000007302,lindagumbrell@morleystores.co.uk,"11-14 The Town, Enfield, Middlesex, EN2 6LJ",0,
Food Development @ Trading LTD,CGB000737,"Through Atlas,, Lubanas 76, Riga, LV 1073 LVA",,LVA,,W-MULTIPLE,Food Development @ Trading LTD,000008199,asya.k@hotmail.fr,"Through Atlas,, Lubanas 76, Riga, LV 1073",0,
Attica Department Stores Sa,CGB000740,"Store 02 Golden Hall, 37a Kiffissias Ave, Marousi, Athens, GR 15124 GRC",,GRC,,W-MULTIPLE,Attica Department Stores Sa,000008086,paleochoriti@atticadps.gr; chatzina@atticadps.gr,"Store 02 Golden Hall, 37a Kiffissias Ave, Marousi, Athens, GR 15124",0,
Attica Department Stores Sa,CGB000845,"Store 05 Cosmos Thessaloniki, 11km National Rd, Th Moudanion, Pylaia Thessaloniki, GR 54454 GRC",,GRC,,W-MULTIPLE,Attica Department Stores Sa,000007459,gourni@atticadps.gr,"Store 05 Cosmos Thessaloniki, 11km National Rd, Th Moudanion, Pylaia Thessaloniki, GR 54454",0,
Peek And  Cloppenburg Retail Buying,CGB001033,"Poesgenstr 25 Langenfeld Germany D-40764 Germany",,DEU,,W-MULTIPLE,Ansons - Langenfeld Dc,000006880,#log-import@ansons.de;matthias.guese@ansons.de,"Poesgenstr 25 Langenfeld Germany D-40764",0,
De Bijenkorf Head Office,CGB001044,"Middellandbaan 1b, Woerden, 3447 GP Netherlands",,NLD,,W-MULTIPLE,De Bijenkorf Distrib Centre,000007191,deliveries@debijenkorf.nl,"Middellandbaan 1b, Woerden, 3447 GP",0,
Peek And Cloppenburg Retail Buying,CGB001045,"Logistik Berlin Gmbh, Auguste-Viktoria-Allee 9-12, Berlin, D-13403 Germany",,DEU,,W-MULTIPLE,Peek And Cloppenburg Kg Store,000008156,#log-import@peekundcloppenburg.de,"Logistik Berlin Gmbh, Auguste-Viktoria-Allee 9-12, Berlin, D-13403",0,
Peek & Cloppenburg Vienna Buying Gmbh & Co KG,CGB001054,"Gmbh & Co. Kg, Industriestr 7a, Guntramsdorf, A-2353 Austria",,AUT,,W-MULTIPLE,Peek And Cloppenburg Vienna Buying,000008178,,"Gmbh & Co. Kg, Industriestr 7a, Guntramsdorf, A-2353",0,
Peek & Cloppenburg Retail Buying Gmbh & Co KG,CGB001104,"Rahlau 12-16 Hamburg Germany D-22045 Germany",,DEU,,W-MULTIPLE,Ansons - Hamburg Dc,000006888,#log-import@ansons.de,"Rahlau 12-16 Hamburg Germany D-22045",0,
Peek & Cloppenburg Retail Buying Gmbh & Co KG,CGB001105,"Poesgenstr 25 Langenfeld Germany D-40764 Germany",,DEU,,W-MULTIPLE,Ansons - Langenfeld Dc,000006882,#log-import@ansons.de;matthias.guese@ansons.de,"Poesgenstr 25 Langenfeld Germany D-40764",0,
Peek & Cloppenburg Retail Buying Gmbh & Co KG,CGB001106,"Im Lehrer Feld 59 Ulm Germany D-89081 Germany",,DEU,,W-MULTIPLE,Ansons - Ulm Dc,000006575,#log-import@ansons.de,"Im Lehrer Feld 59 Ulm Germany D-89081",0,
Peek And  Cloppenburg Retail Buying,CGB001107,"Logistik Berlin Gmbh, Im Lehrer Feld 59, Ulm, D-89081 Germany",,DEU,,W-MULTIPLE,Peek And Cloppenburg Kg Store,000008172,#log-import@peekundcloppenburg.de,"Logistik Berlin Gmbh, Im Lehrer Feld 59, Ulm, D-89081",0,
Peek And  Cloppenburg Retail Buying,CGB001119,"Gmbh & Co Kg,Central Import Dp, Berliner Allee 2, Dusseldorf, D-40212 Germany",,DEU,,W-MULTIPLE,Peek And  Cloppenburg Retail Buying,000008162,#log-import@peekundcloppenburg.de,"Gmbh & Co Kg,Central Import Dp, Berliner Allee 2, Dusseldorf, D-40212",0,
Peek And  Cloppenburg Retail Buying,CGB001120,"Gmbh & Co Kg,Central Import Dp, Berliner Allee 2, Dusseldorf, D-40212 Germany",,DEU,,W-MULTIPLE,Peek And  Cloppenburg Retail Buying,000008166,#log-import@peekundcloppenburg.de,"Gmbh & Co Kg,Central Import Dp, Berliner Allee 2, Dusseldorf, D-40212",0,
Attica-Transcombi Expr Salonico 3pl,CGB001121,"Store 09 Tsimiski  - Parodos, Marinou Antipa 6, Kalochori, Thessaloniki, GR 57009 GRC",,GRC,,W-MULTIPLE,Attica-Transcombi Expr Salonico 3pl,000008629,svarna@atticadps.gr; fragou@atticadps.gr,"Store 09 Tsimiski  - Parodos, Marinou Antipa 6, Kalochori, Thessaloniki, GR 57009",0,
Fenwicks ltd,CGB001178,"Supplier Accounts Dept, Brent Cross Shopping Centre, London, Greater London, NW4 3FN GBR",,GBR,,W-MULTIPLE,Fenwicks Ax Inv Code,000007376,supplieraccs@fenwick.co.uk,"Supplier Accounts Dept, Brent Cross Shopping Centre, London, Greater London, NW4 3FN",0,
Fenwicks ltd,CGB001178,,,,,W-MULTIPLE,,000009900,,,0,
Peek And Cloppenburg Retail Buying GmbH & Co. KG,CGB001179,"Gmbh & Co Kg,Central Import Dp, Berliner Allee 2, Dusseldorf, D-40212 Germany",,DEU,,W-MULTIPLE,Peek And Cloppenburg Ax Inv Code,000008170,#log-import@peekundcloppenburg.de,"Gmbh & Co Kg,Central Import Dp, Berliner Allee 2, Dusseldorf, D-40212",0,
Peek And Cloppenburg Retail Buying GmbH & Co. KG,CGB001179,,,,,W-MULTIPLE,,000010702,,,0,
Peek And  Cloppenburg,CGB001180,"Peek and Cloppenburg Retail Gmbh & Co Kg,Central Import Dp, Berliner Allee 2, Düsseldorf, D-40212 Germany",,DEU,,W-MULTIPLE,Peek And  Cloppenburg Ax Inv Code,000006585,#log-import@ansons.de;matthias.guese@ansons.de,"Peek and Cloppenburg Retail Gmbh & Co Kg,Central Import Dp, Berliner Allee 2, Düsseldorf, D-40212",0,
Peek And  Cloppenburg,CGB001180,,,,,W-MULTIPLE,,000008749,,,0,
Peek And  Cloppenburg,CGB001180,,,,,W-MULTIPLE,,000008750,,,0,
Tjx Uk Specials,CGB001270,"50 Clarendon Road, Watford, Hertfordshire, WD17 1TX GBR",,GBR,,W-MULTIPLE,Tjx Uk Specials,000008611,accountspayable_invoices@tjxeurope.com,"50 Clarendon Road, Watford, Hertfordshire, WD17 1TX",0,
Peek And  Cloppenburg Retail Buying,CGB001303,"Logwin Solutions Network GMBH Fashion ID Weichertstrasse 10 Aschaffenburh 63741 34355  Germany",,DEU,,W-MULTIPLE,Fashion ID,000018779,,"Logwin Solutions Network GMBH Fashion ID Weichertstrasse 10 Aschaffenburh 63741",0,34355
Bram ZNL der Konen Bekleidungshaus KG,CGB001305,"Bram ZNL der Konen Bekleidungshaus KG Shopping Centre City Concorde 80 Route de Longwy Bertrange Luxembourg LU8060  Germany",,DEU,,W-MULTIPLE,Delivery,000018808,,"Bram ZNL der Konen Bekleidungshaus KG Shopping Centre City Concorde 80 Route de Longwy Bertrange Luxembourg LU8060 ",0,
Konen Bekleidungshaus KG,CGB001308,"Konen Bekleidungshaus KG Kreditorenbuchhaltung Emeranstr. 28 Fedkirchen 85622  Germany",,DEU,,W-MULTIPLE,Konen Bekleidungshaus KG,000018736,,"Konen Bekleidungshaus KG Kreditorenbuchhaltung Emeranstr. 28 Fedkirchen 85622 ",0,
Konen Bekleidungshaus KG,CGB001308,"Bram City Concorde ZNL  der Konen Bekleidungshaus KG  80 route de Longwy Bertrange Luxemburg   Bertrange,8060 LUX",Bertrange,LUX,,W-MULTIPLE,Konen Bekleidungshaus KG,000018738,,"Bram City Concorde ZNL  der Konen Bekleidungshaus KG  80 route de Longwy Bertrange Luxemburg  ",0,8060
Comercial Macys Canarias S.L,CGB001321,"Calle Punta Arenas, Nave B5, El Tabelero,  Maspalomas, 35109 Gran Canaria Spain",,ESP,,W-MULTIPLE,Comercial Macys Canarias S.L,000018814,,"Calle Punta Arenas, Nave B5, El Tabelero,  Maspalomas, 35109 Gran Canaria",0,
Attica Department Stores SA Store 8,CGB003308,"Attica Dept Stores SA Store 08 35 Andrea Papandreu Str Marousi Athens Greece 15122 GRC",,GRC,,W-MULTIPLE,Attica Department Stores SA,000028379,,"Attica Dept Stores SA Store 08 35 Andrea Papandreu Str Marousi Athens Greece",0,15122
Sportsdirect.com Retail Ltd t/a Cruise Clothing,CGB006668,"Challenge Way Martland Park Wigan Greater Manchester WN5 0LD GBR",,GBR,,W-MULTIPLE,Cruise Clothing Deliveries,000037710,,"Challenge Way Martland Park Wigan Greater Manchester WN5 0LD",0,
El Corte Ingles,CGB007407,"Ctra/ Andalucia KM 22, 80 Valdemoro  28340 Madrid Spain",,ESP,,W-MULTIPLE,ECI Valdemoro Warehouse,000040946,,"Ctra/ Andalucia KM 22, 80 Valdemoro  28340 Madrid",0,
Peek & Cloppenburg Vienna Buying Gmbh & Co KG,CGB007455,"Mechelgasse 1 Wien A-1030  Austria   Austria",,AUT,,W-MULTIPLE,Peek & Cloppenburg Vienna Buying Gmbh & Co KG,000041205,,"Mechelgasse 1 Wien A-1030  Austria  ",0,
Peek & Cloppenburg Vienna Buying Gmbh & Co KG,CGB007455,,,,,W-MULTIPLE,,000041206,,,0,
Peek & Cloppenburg Vienna Buying Gmbh & Co KG,CGB007456,"Mechelgasse 1 WIEN A-1030 Austria  A-1030  Austria",,AUT,,W-MULTIPLE,Peek & Cloppenburg Vienna Buying Gmbh & Co KG,000041213,,"Mechelgasse 1 WIEN A-1030 Austria ",0,A-1030
Peek & Cloppenburg Vienna Buying Gmbh & Co KG,CGB007456,,,,,W-MULTIPLE,,000041214,,,0,
Peek & Cloppenburg Vienna Buying Gmbh & Co KG,CGB007457,"Mechelgasse 1 Wien A-1030 Austria  Austria",,AUT,,W-MULTIPLE,Peek & Cloppenburg Vienna Buying Gmbh & Co KG,000041207,,"Mechelgasse 1 Wien A-1030 Austria ",0,
Peek & Cloppenburg Vienna Buying Gmbh & Co KG,CGB007457,,,,,W-MULTIPLE,,000041208,,,0,
Selfridges Retail Ltd,CGB007606,"Hams Hall Distribution Park Edison Road Coleshill Birmingham B46 1DA GBR",,GBR,,W-MULTIPLE,Selfridges Deliveries - Exel,000041609,,"Hams Hall Distribution Park Edison Road Coleshill Birmingham B46 1DA",0,
Peek & Cloppenburg Retail Buying Gmbh & Co KG,CGB008116,"P&C Store 20 MA Mannheim Logistik Egelsbach GMBH & Co KG Marie-Curie-Strasse 24 Egelsbach D-63329  Germany",,DEU,,W-MULTIPLE,Peek and Cloppenburg Retail Buying Gmbh & Co KG,000043145,,"P&C Store 20 MA Mannheim Logistik Egelsbach GMBH & Co KG Marie-Curie-Strasse 24 Egelsbach D-63329 ",0,
WP Brown Ltd t/a Browns Beverley,CGB008594,"The Corn Exchange Saturday Market Beverley East Yorkshire HU17 8BB GBR",,GBR,,W-MULTIPLE,WP Brown Ltd t/a Browns of York,000043708,,"The Corn Exchange Saturday Market Beverley East Yorkshire HU17 8BB",0,
XPO - John Lewis 1,CGB008902,"2 Mercury Drive, Brackmills Industrial Estate,North London Northampton - NTH NN4 7PN GBR",Northampton,GBR,NTH,XPO-TEST,John Lewis Northampton,000045823,delivery-northampton@johnlewis.com,"2 Mercury Drive, Brackmills Industrial Estate,North London",1,NN4 7PN
XPO - John Lewis 1,CGB008902,"Park Royal Distribution Centre, 41-44 Kendal Avenue London - LDN W3 0TP GBR",London,GBR,LDN,XPO-TEST,John Lewis Park Royal,000045825,,"Park Royal Distribution Centre, 41-44 Kendal Avenue",1,W3 0TP
XPO - John Lewis 1,CGB008902,"New Address, New Street London - LONDON SL4 9NH GBR",London,GBR,LONDON,XPO-TEST,New Address Added,000045828,new@johnlewis.com,"New Address, New Street",1,SL4 9NH
XPO - House of Fraser 1,CGB008903,"This is changed first street CHANGED London - LONDON TW8 0H3 GBR",London,GBR,LONDON,XPO-TEST,XPO - House of Frazer 1,000045831,,"This is changed first street CHANGED",0,TW8 0H3
XPO - House of Fraser 1,CGB008903,"This is secondary Street London - LONDON TW4 8YH GBR",London,GBR,LONDON,XPO-TEST,HOF - Secondary Address,000045833,contact@hof.com,"This is secondary Street",0,TW4 8YH
XPO - House of Fraser 2,CGB008904,"A new customer with new address London - LONDON TW3 7UJ GBR",London,GBR,LONDON,XPO-TEST,XPO - House of Fraser 2,000045836,info1@hof.com;info@hof.com,"A new customer with new address",0,TW3 7UJ
Test,CGB008905,"166, Browning road, Manor park, London London - Middlesex GBR",London,GBR,Middlesex,XPO-TEST,Test,000045847,,"166, Browning road, Manor park, London",0,
GB211 Customer,SCAGB211,"Unit 68,  McArthur Glen Great Western Designer Outlet Village Kemble Drive - modified Swindon - BKM SN2 2DY GBR",Swindon,GBR,BKM,XPO-TEST,SWINDON - TED BAKER,000005544,store@tedbaker.com;store1@tedbaker.com,"Unit 68,  McArthur Glen Great Western Designer Outlet Village Kemble Drive - modified",0,SN2 2DY
GB212 Customer,SCAGB212,"Ted Baker, Unit 19, Princes Square 48 Buchanan Street - modified Glasgow - GLS G1 3JN GBR",Glasgow,GBR,GLS,XPO-TEST,GLASGOW - TED BAKER,000005545,,"Ted Baker, Unit 19, Princes Square 48 Buchanan Street - modified",0,G1 3JN
GB215 Customer,SCAGB215,"Unit 64, Livingston Designer Outlet, Almondvale Avenue Livingston EH54 6QX GBR",Livingston,GBR,,XPO-TEST,215 - LIVINGSTON - TED BAKER,000005548,,"Unit 64, Livingston Designer Outlet, Almondvale Avenue",0,EH54 6QX
GB225 Customer,SCAGB225,"Ted Baker, E08/9 Freeport Oulet Village, Charter Way Braintree - ESS CM77 8YH GBR",Braintree,GBR,ESS,XPO-TEST,BRAINTREE - TED BAKER,000005558,,"Ted Baker, E08/9 Freeport Oulet Village, Charter Way",0,CM77 8YH
GB228 Customer,SCAGB228,"Ted Baker 1 Victoria Square Unit LG05 Belfast BT1 4QG GBR",Belfast,GBR,,XPO-TEST,BELFAST - TED BAKER,000005560,,"Ted Baker 1 Victoria Square Unit LG05",0,BT1 4QG
